<?xml version="1.0" encoding="UTF-8" standalone="no"?>
<!-- Created with Inkscape (http://www.inkscape.org/) -->
<svg
   xmlns:dc="http://purl.org/dc/elements/1.1/"
   xmlns:cc="http://web.resource.org/cc/"
   xmlns:rdf="http://www.w3.org/1999/02/22-rdf-syntax-ns#"
   xmlns:svg="http://www.w3.org/2000/svg"
   xmlns="http://www.w3.org/2000/svg"
   xmlns:sodipodi="http://inkscape.sourceforge.net/DTD/sodipodi-0.dtd"
   xmlns:inkscape="http://www.inkscape.org/namespaces/inkscape"
   sodipodi:docname="22.svg"
   sodipodi:docbase="/home/drumm/drupal/presentations/amsterdam2005"
   inkscape:version="0.42.2"
   sodipodi:version="0.32"
   id="svg1531"
   height="600px"
   width="800px"
   inkscape:export-filename="/home/drumm/template2.png"
   inkscape:export-xdpi="115.20000"
   inkscape:export-ydpi="115.20000">
  <defs
     id="defs3" />
  <sodipodi:namedview
     inkscape:document-units="px"
     inkscape:current-layer="layer1"
     inkscape:cy="306.94617"
     inkscape:cx="437.97574"
     inkscape:zoom="1.0000000"
     inkscape:pageshadow="2"
     inkscape:pageopacity="0.0"
     borderopacity="1.0"
     bordercolor="#666666"
     pagecolor="#ffffff"
     id="base"
     inkscape:window-width="1278"
     inkscape:window-height="798"
     inkscape:window-x="0"
     inkscape:window-y="0" />
  <metadata
     id="metadata4">
    <rdf:RDF>
      <cc:Work
         rdf:about="">
        <dc:format>image/svg+xml</dc:format>
        <dc:type
           rdf:resource="http://purl.org/dc/dcmitype/StillImage" />
      </cc:Work>
    </rdf:RDF>
  </metadata>
  <g
     inkscape:groupmode="layer"
     inkscape:label="Layer 1"
     id="layer1">
    <text
       sodipodi:linespacing="160.00000%"
       id="text1311"
       y="164.29453"
       x="397.66797"
       style="font-size:48.000000px;font-style:normal;font-variant:normal;font-weight:normal;font-stretch:normal;text-align:center;line-height:160.00000%;writing-mode:lr-tb;text-anchor:middle;fill:#000000;fill-opacity:1.0000000;stroke:none;stroke-width:1.0000000px;stroke-linecap:butt;stroke-linejoin:miter;stroke-opacity:1.0000000;font-family:Bitstream Vera Sans"
       xml:space="preserve"><tspan
         y="164.29453"
         x="397.66797"
         sodipodi:role="line"
         id="tspan1465">Short text</tspan><tspan
         y="241.09453"
         x="397.66797"
         sodipodi:role="line"
         id="tspan1467">Long text</tspan><tspan
         y="317.89453"
         x="397.66797"
         sodipodi:role="line"
         id="tspan1544">Integer</tspan><tspan
         y="394.69453"
         x="397.66797"
         sodipodi:role="line"
         id="tspan1546">Multiple integer</tspan><tspan
         y="471.49453"
         x="397.66797"
         sodipodi:role="line"
         id="tspan1548">Decimal</tspan></text>
  </g>
</svg>
